<?xml version="1.0" encoding="UTF-8" standalone="no"?>
<!-- Created with Inkscape (http://www.inkscape.org/) -->

<svg
   xmlns:dc="http://purl.org/dc/elements/1.1/"
   xmlns:cc="http://creativecommons.org/ns#"
   xmlns:rdf="http://www.w3.org/1999/02/22-rdf-syntax-ns#"
   xmlns:svg="http://www.w3.org/2000/svg"
   xmlns="http://www.w3.org/2000/svg"
   xmlns:sodipodi="http://sodipodi.sourceforge.net/DTD/sodipodi-0.dtd"
   xmlns:inkscape="http://www.inkscape.org/namespaces/inkscape"
   width="512"
   height="512"
   id="svg2"
   version="1.1"
   inkscape:version="0.48.5 r10040"
   sodipodi:docname="Neues Dokument 1">
  <defs
     id="defs4" />
  <sodipodi:namedview
     id="base"
     pagecolor="#ffffff"
     bordercolor="#666666"
     borderopacity="1.0"
     inkscape:pageopacity="0.0"
     inkscape:pageshadow="2"
     inkscape:zoom="0.98994949"
     inkscape:cx="69.204621"
     inkscape:cy="194.10125"
     inkscape:document-units="px"
     inkscape:current-layer="layer1"
     showgrid="false"
     fit-margin-top="0"
     fit-margin-left="0"
     fit-margin-right="0"
     fit-margin-bottom="0"
     inkscape:window-width="1920"
     inkscape:window-height="1034"
     inkscape:window-x="-13"
     inkscape:window-y="15"
     inkscape:window-maximized="1" />
  <metadata
     id="metadata7">
    <rdf:RDF>
      <cc:Work
         rdf:about="">
        <dc:format>image/svg+xml</dc:format>
        <dc:type
           rdf:resource="http://purl.org/dc/dcmitype/StillImage" />
        <dc:title></dc:title>
      </cc:Work>
    </rdf:RDF>
  </metadata>
  <g
     inkscape:label="Ebene 1"
     inkscape:groupmode="layer"
     id="layer1"
     transform="translate(-84.765604,-339.82006)">
    <path
       style="fill:#c2b198;fill-opacity:1;stroke:#c2b198;stroke-width:1.39999998;stroke-linecap:round;stroke-linejoin:miter;stroke-miterlimit:4;stroke-opacity:1;stroke-dasharray:none;stroke-dashoffset:0"
       d="M 362.01064,633.37539 C 260.38165,623.05379 176.20377,614.40352 174.94866,614.15268 l -2.28201,-0.45611 0.54516,-43.39543 c 0.29985,-23.86758 -0.34345,-44.46628 -0.12035,-44.676 0.3826,-0.35953 401.90347,46.28223 402.44043,46.733 0.13853,0.11625 -1.36436,9.75571 -7.04826,37.53038 -8.92224,43.59911 -16.29166,42.45108 -18.96383,42.35334 -1.50105,-0.0552 -85.88017,-8.54477 -187.50916,-18.86647 z"
       id="path3857"
       inkscape:connector-curvature="0"
       sodipodi:nodetypes="sccsccscs" />
    <path
       style="fill:#b19b7b;fill-opacity:1;fill-rule:evenodd;stroke:#c2b198;stroke-width:1.39999998;stroke-linecap:round;stroke-linejoin:miter;stroke-miterlimit:4;stroke-opacity:1;stroke-dasharray:none;stroke-dashoffset:0"
       d="m 500.72953,757.84198 c -1.76747,-0.20358 -17.4336,-2.35141 -34.81363,-4.77297 -74.24707,-10.34474 -283.60181,-36.71427 -325.31692,-40.97548 l -15.20792,-1.55357 1.36649,-2.77993 c 36.6131,-74.48425 47.20316,-94.94621 49.13934,-94.94621 2.6981,0 374.88436,37.66832 375.25208,37.97854 0.29795,0.25146 -26.72831,70.16907 -35.86919,92.79454 -2.98411,7.38626 -6.0326,13.75303 -6.77439,14.14835 -1.3824,0.73668 -2.20781,0.74798 -7.77586,0.10673 z"
       id="path3863"
       inkscape:connector-curvature="0" />
    <path
       style="fill:#c9baa4;fill-opacity:1;fill-rule:evenodd;stroke:none"
       d="m 502.24555,805.23906 0.50982,-44.50954 15.56218,-40.46329 c 27.13284,-70.54811 57.30132,-148.10237 57.76205,-148.48914 0.24453,-0.20527 0.79823,18.16823 1.23044,40.82994 0.57728,30.26792 0.45586,42.26593 -0.45756,45.20769 -7.24446,23.33198 -68.48228,180.85589 -69.96472,187.18807 -0.62306,2.66139 -5.10958,1.03924 -4.64221,-39.76373 z"
       id="path3865"
       inkscape:connector-curvature="0"
       sodipodi:nodetypes="scscssss" />
    <path
       style="fill:#b6a284;fill-opacity:1;fill-rule:evenodd;stroke:none"
       d="m 126.1654,711.69701 c -4.71316,-0.42718 -25.06432,-4.52083 -25.71832,-4.65693 -0.71362,-0.14857 5.22547,-15.88831 14.85242,-39.36201 8.82285,-21.51288 25.40737,-62.38083 36.85451,-90.81753 l 20.37045,-51.70299 c 0.11751,30.1571 1.15201,58.95066 3.18148,88.41061 -15.80916,28.40698 -46.20045,93.05148 -49.54054,98.12885 z"
       id="path3861"
       inkscape:connector-curvature="0"
       sodipodi:nodetypes="ccssccc" />
    <path
       style="fill:#551a1a"
       d="m 412.65969,347.21587 c -78.11285,-5.75829 -147.60708,44.95827 -163.64009,133.58962 8.69947,13.35818 -8.84251,38.41043 -17.93818,57.12158 -7.81828,16.08335 -9.39605,27.4816 17.29629,22.74094 36.46676,-42.31692 17.98391,-109.54699 61.03898,-150.31334 41.92817,-60.64918 137.95251,-53.5146 175.56383,7.77686 45.69312,68.17416 10.0772,156.56856 -30.34016,218.35764 -45.20902,63.01767 -114.82836,115.38707 -193.32773,123.80517 -87.76353,12.2609 -76.7469,-116.60627 3.99373,-105.85478 65.98112,15.99217 167.39915,16.73413 166.49635,-76.77187 10.03563,-52.0416 -46.04661,-130.04705 -99.57993,-87.50978 -33.0269,61.67432 104.78523,7.12178 82.51786,78.30652 -3.36354,90.34264 -107.39732,68.20229 -165.65679,64.09572 -67.78402,5.60522 -115.92854,113.42557 -40.27215,143.86146 108.0219,26.39834 216.2322,-47.25113 269.91256,-137.54821 43.9223,-67.5325 69.79358,-159.82761 23.15425,-232.84862 -18.97482,-31.7268 -52.0004,-55.14411 -89.21882,-58.80891 z"
       id="path2998"
       inkscape:connector-curvature="0"
       sodipodi:nodetypes="ccscccccccccccccc" />
    <path
       style="fill:#c2b198;fill-opacity:1;fill-rule:evenodd;stroke:none"
       d="M 299.88173,821.68647 C 188.23713,808.54676 96.83721,797.76325 96.7708,797.72311 c -0.0664,-0.0401 0.51222,-12.41417 1.28587,-27.49796 0.77364,-15.08379 1.43052,-35.61894 1.45974,-45.63353 0.0292,-10.01467 0.26979,-18.06096 0.53463,-18.06096 0.26483,0 14.60536,1.65735 31.86785,3.86339 60.1082,7.68135 182.63475,22.90169 213.48833,26.51978 60.95416,7.1477 157.07605,20.18464 158.39638,21.20341 1.71005,1.31938 3.87462,56.85202 2.6983,76.29405 -0.77414,12.79453 0.88645,11.34206 -1.33119,11.25546 -1.26434,-0.0499 -93.64438,-10.84047 -205.28898,-23.98028 z"
       id="path3859"
       inkscape:connector-curvature="0"
       sodipodi:nodetypes="scssssscscs" />
  </g>
</svg>
